<svg xmlns="http://www.w3.org/2000/svg" width="18" viewBox="0 0 18 22" enable-background="new 0 0 18 22"><style type="text/css">.arright{fill:#E5CEA9;}</style><path class="arright" d="M16,11L5.5,0.6c-0.8-0.8-2-0.8-2.8,0s-0.8,2,0,2.8l7.6,7.6l-7.5,7.6c-0.8,0.8-0.8,2,0,2.8s2,0.8,2.8,0
 C5.6,21.4,16,11,16,11z"/></svg>

