<svg width="14" height="20" viewBox="0 0 14 20" version="1.1" xmlns="http://www.w3.org/2000/svg" xmlns:xlink="http://www.w3.org/1999/xlink">
<title>Vector</title>
<desc>Created using Figma</desc>
<g id="Canvas" transform="translate(-7387 1437)">
<g id="Vector">
<use xlink:href="#path0_fill" transform="translate(7387 -1437)" fill="#CFA767"/>
</g>
</g>
<defs>
<path id="path0_fill" d="M 13.1102 6.66667C 13.1102 7.55556 12.8917 8.44444 12.6732 8.88889L 8.0846 19.1111C 7.8661 19.3333 7.6476 19.5556 7.4291 19.7778C 7.21059 20 6.77359 20 6.55508 20C 6.33658 20 5.89958 20 5.68107 19.7778C 5.46257 19.5556 5.24407 19.3333 5.02556 19.1111L 0.437006 8.88889C 0.218503 8.44444 0 7.55556 0 6.66667C 0 4.88889 0.655508 3.33333 1.96653 2C 3.27754 0.666667 4.80706 0 6.55508 0C 8.30311 0 9.83263 0.666667 11.1436 2C 12.4547 3.33333 13.1102 4.88889 13.1102 6.66667ZM 8.95862 9.11111C 9.61412 8.44444 9.83263 7.55556 9.83263 6.66667C 9.83263 5.77778 9.61412 4.88889 8.95862 4.22222C 8.30311 3.55556 7.4291 3.33333 6.55508 3.33333C 5.68107 3.33333 4.80706 3.55556 4.15155 4.22222C 3.49605 4.88889 3.27754 5.77778 3.27754 6.66667C 3.27754 7.55556 3.49605 8.44444 4.15155 9.11111C 4.80706 9.77778 5.68107 10 6.55508 10C 7.4291 10 8.30311 9.77778 8.95862 9.11111Z"/>
</defs>
</svg>
