<svg width="224" height="38" viewBox="0 0 224 38" version="1.1" xmlns="http://www.w3.org/2000/svg" xmlns:xlink="http://www.w3.org/1999/xlink">
<title>kira-keri-logo</title>
<desc>Created using Figma</desc>
<g id="Canvas" transform="translate(639 3079)">
<rect x="-639" y="-3079" width="224" height="38" fill="#333333"/>
<clipPath id="clip-0" clip-rule="evenodd">
<path d="M -705 -3118L -345 -3118L -345 -712L -705 -712L -705 -3118Z" fill="#FFFFFF"/>
</clipPath>
<g id="product list mob" clip-path="url(#clip-0)">
<path d="M -705 -3118L -345 -3118L -345 -712L -705 -712L -705 -3118Z" fill="#FFFFFF"/>
<g id="Component">
<g id="Rectangle 19">
<use xlink:href="#path0_fill" transform="translate(-705 -3094)" fill="#FFFFFF"/>
</g>
<g id="kira-keri-logo">
<g id="Rectangle 18">
<mask id="mask0_outline_ins">
<use xlink:href="#path1_fill" fill="white" transform="translate(-639 -3079)"/>
</mask>
<g mask="url(#mask0_outline_ins)">
<use xlink:href="#path2_stroke_2x" transform="translate(-639 -3079)"/>
</g>
</g>
<g id="Rectangle 18">
<use xlink:href="#path1_fill" transform="translate(-528 -3079)"/>
<mask id="mask1_outline_ins">
<use xlink:href="#path1_fill" fill="white" transform="translate(-528 -3079)"/>
</mask>
<g mask="url(#mask1_outline_ins)">
<use xlink:href="#path2_stroke_2x" transform="translate(-528 -3079)"/>
</g>
</g>
<g id="KIRA KARI">
<use xlink:href="#path3_fill" transform="translate(-623 -3070)"/>
<use xlink:href="#path4_fill" transform="translate(-623 -3070)" fill="#FFFFFF"/>
</g>
</g>
</g>
</g>
</g>
<defs>
<path id="path0_fill" d="M 0 0L 360 0L 360 70L 0 70L 0 0Z"/>
<path id="path1_fill" d="M 0 0L 113 0L 113 38L 0 38L 0 0Z"/>
<path id="path2_stroke_2x" d="M 0 0L 0 -2L -2 -2L -2 0L 0 0ZM 113 0L 115 0L 115 -2L 113 -2L 113 0ZM 113 38L 113 40L 115 40L 115 38L 113 38ZM 0 38L -2 38L -2 40L 0 40L 0 38ZM 0 2L 113 2L 113 -2L 0 -2L 0 2ZM 111 0L 111 38L 115 38L 115 0L 111 0ZM 113 36L 0 36L 0 40L 113 40L 113 36ZM 2 38L 2 0L -2 0L -2 38L 2 38Z"/>
<path id="path3_fill" d="M 1.99242 17C 1.87242 17 1.76442 16.958 1.66842 16.874C 1.58442 16.778 1.54242 16.67 1.54242 16.55L 1.54242 4.85C 1.54242 4.718 1.58442 4.61 1.66842 4.526C 1.76442 4.442 1.87242 4.4 1.99242 4.4L 4.26042 4.4C 4.39242 4.4 4.50042 4.442 4.58442 4.526C 4.66842 4.61 4.71042 4.718 4.71042 4.85L 4.71042 8.846L 8.04042 4.742C 8.18442 4.514 8.41842 4.4 8.74242 4.4L 11.3344 4.4C 11.4424 4.4 11.5324 4.442 11.6044 4.526C 11.6764 4.598 11.7124 4.682 11.7124 4.778C 11.7124 4.862 11.6944 4.934 11.6584 4.994L 7.33842 10.43L 11.9824 16.406C 12.0304 16.454 12.0544 16.526 12.0544 16.622C 12.0544 16.718 12.0184 16.808 11.9464 16.892C 11.8744 16.964 11.7844 17 11.6764 17L 8.99442 17C 8.70642 17 8.46642 16.88 8.27442 16.64L 4.71042 12.194L 4.71042 16.55C 4.71042 16.682 4.66842 16.79 4.58442 16.874C 4.50042 16.958 4.39242 17 4.26042 17L 1.99242 17ZM 26.528 17C 26.408 17 26.3 16.958 26.204 16.874C 26.12 16.778 26.078 16.67 26.078 16.55L 26.078 4.85C 26.078 4.718 26.12 4.61 26.204 4.526C 26.3 4.442 26.408 4.4 26.528 4.4L 28.94 4.4C 29.072 4.4 29.18 4.442 29.264 4.526C 29.36 4.61 29.408 4.718 29.408 4.85L 29.408 16.55C 29.408 16.682 29.36 16.79 29.264 16.874C 29.18 16.958 29.072 17 28.94 17L 26.528 17ZM 44.9639 17C 44.8439 17 44.7359 16.958 44.6399 16.874C 44.5559 16.778 44.5139 16.67 44.5139 16.55L 44.5139 4.85C 44.5139 4.718 44.5559 4.61 44.6399 4.526C 44.7359 4.442 44.8439 4.4 44.9639 4.4L 49.8599 4.4C 51.4319 4.4 52.6559 4.76 53.5319 5.48C 54.4199 6.188 54.8639 7.196 54.8639 8.504C 54.8639 9.344 54.6659 10.058 54.2699 10.646C 53.8739 11.234 53.3279 11.684 52.6319 11.996L 55.0979 16.424C 55.1339 16.496 55.1519 16.562 55.1519 16.622C 55.1519 16.718 55.1099 16.808 55.0259 16.892C 54.9539 16.964 54.8699 17 54.7739 17L 52.3799 17C 52.0319 17 51.7859 16.838 51.6419 16.514L 49.5899 12.554L 47.7539 12.554L 47.7539 16.55C 47.7539 16.682 47.7059 16.79 47.6099 16.874C 47.5259 16.958 47.4179 17 47.2859 17L 44.9639 17ZM 49.8239 9.998C 50.3759 9.998 50.7959 9.866 51.0839 9.602C 51.3719 9.326 51.5159 8.948 51.5159 8.468C 51.5159 7.988 51.3719 7.61 51.0839 7.334C 50.8079 7.046 50.3879 6.902 49.8239 6.902L 47.7539 6.902L 47.7539 9.998L 49.8239 9.998ZM 68.8392 17C 68.7432 17 68.6532 16.964 68.5692 16.892C 68.4972 16.808 68.4612 16.718 68.4612 16.622C 68.4612 16.55 68.4672 16.496 68.4792 16.46L 72.7092 4.904C 72.7452 4.76 72.8232 4.64 72.9432 4.544C 73.0632 4.448 73.2192 4.4 73.4112 4.4L 76.0752 4.4C 76.2672 4.4 76.4232 4.448 76.5432 4.544C 76.6632 4.64 76.7412 4.76 76.7772 4.904L 80.9892 16.46L 81.0252 16.622C 81.0252 16.718 80.9832 16.808 80.8992 16.892C 80.8272 16.964 80.7372 17 80.6292 17L 78.4152 17C 78.1272 17 77.9352 16.874 77.8392 16.622L 77.1372 14.786L 72.3312 14.786L 71.6472 16.622C 71.5512 16.874 71.3532 17 71.0532 17L 68.8392 17ZM 76.4172 12.194L 74.7432 7.442L 73.0692 12.194L 76.4172 12.194Z"/>
<path id="path4_fill" d="M 111.926 17C 111.806 17 111.698 16.958 111.602 16.874C 111.518 16.778 111.476 16.67 111.476 16.55L 111.476 4.85C 111.476 4.718 111.518 4.61 111.602 4.526C 111.698 4.442 111.806 4.4 111.926 4.4L 114.194 4.4C 114.326 4.4 114.434 4.442 114.518 4.526C 114.602 4.61 114.644 4.718 114.644 4.85L 114.644 8.846L 117.974 4.742C 118.118 4.514 118.352 4.4 118.676 4.4L 121.268 4.4C 121.376 4.4 121.466 4.442 121.538 4.526C 121.61 4.598 121.646 4.682 121.646 4.778C 121.646 4.862 121.628 4.934 121.592 4.994L 117.272 10.43L 121.916 16.406C 121.964 16.454 121.988 16.526 121.988 16.622C 121.988 16.718 121.952 16.808 121.88 16.892C 121.808 16.964 121.718 17 121.61 17L 118.928 17C 118.64 17 118.4 16.88 118.208 16.64L 114.644 12.194L 114.644 16.55C 114.644 16.682 114.602 16.79 114.518 16.874C 114.434 16.958 114.326 17 114.194 17L 111.926 17ZM 135.292 17C 135.196 17 135.106 16.964 135.022 16.892C 134.95 16.808 134.914 16.718 134.914 16.622C 134.914 16.55 134.92 16.496 134.932 16.46L 139.162 4.904C 139.198 4.76 139.276 4.64 139.396 4.544C 139.516 4.448 139.672 4.4 139.864 4.4L 142.528 4.4C 142.72 4.4 142.876 4.448 142.996 4.544C 143.116 4.64 143.194 4.76 143.23 4.904L 147.442 16.46L 147.478 16.622C 147.478 16.718 147.436 16.808 147.352 16.892C 147.28 16.964 147.19 17 147.082 17L 144.868 17C 144.58 17 144.388 16.874 144.292 16.622L 143.59 14.786L 138.784 14.786L 138.1 16.622C 138.004 16.874 137.806 17 137.506 17L 135.292 17ZM 142.87 12.194L 141.196 7.442L 139.522 12.194L 142.87 12.194ZM 161.946 17C 161.826 17 161.718 16.958 161.622 16.874C 161.538 16.778 161.496 16.67 161.496 16.55L 161.496 4.85C 161.496 4.718 161.538 4.61 161.622 4.526C 161.718 4.442 161.826 4.4 161.946 4.4L 166.842 4.4C 168.414 4.4 169.638 4.76 170.514 5.48C 171.402 6.188 171.846 7.196 171.846 8.504C 171.846 9.344 171.648 10.058 171.252 10.646C 170.856 11.234 170.31 11.684 169.614 11.996L 172.08 16.424C 172.116 16.496 172.134 16.562 172.134 16.622C 172.134 16.718 172.092 16.808 172.008 16.892C 171.936 16.964 171.852 17 171.756 17L 169.362 17C 169.014 17 168.768 16.838 168.624 16.514L 166.572 12.554L 164.736 12.554L 164.736 16.55C 164.736 16.682 164.688 16.79 164.592 16.874C 164.508 16.958 164.4 17 164.268 17L 161.946 17ZM 166.806 9.998C 167.358 9.998 167.778 9.866 168.066 9.602C 168.354 9.326 168.498 8.948 168.498 8.468C 168.498 7.988 168.354 7.61 168.066 7.334C 167.79 7.046 167.37 6.902 166.806 6.902L 164.736 6.902L 164.736 9.998L 166.806 9.998ZM 186.992 17C 186.872 17 186.764 16.958 186.668 16.874C 186.584 16.778 186.542 16.67 186.542 16.55L 186.542 4.85C 186.542 4.718 186.584 4.61 186.668 4.526C 186.764 4.442 186.872 4.4 186.992 4.4L 189.404 4.4C 189.536 4.4 189.644 4.442 189.728 4.526C 189.824 4.61 189.872 4.718 189.872 4.85L 189.872 16.55C 189.872 16.682 189.824 16.79 189.728 16.874C 189.644 16.958 189.536 17 189.404 17L 186.992 17Z"/>
</defs>
</svg>
